EESchema Schematic File Version 4
EELAYER 30 0
EELAYER END
$Descr A4 11693 8268
encoding utf-8
Sheet 1 1
Title ""
Date ""
Rev ""
Comp ""
Comment1 ""
Comment2 ""
Comment3 ""
Comment4 ""
$EndDescr
$Comp
L Device:C C5
U 1 1 6116B9CB
P 1035 5870
F 0 "C5" H 1150 5916 50  0000 L CNN
F 1 "10uF" H 1150 5825 50  0000 L CNN
F 2 "Capacitor_SMD:C_0805_2012Metric" H 1073 5720 50  0001 C CNN
F 3 "~" H 1035 5870 50  0001 C CNN
	1    1035 5870
	1    0    0    -1  
$EndComp
$Comp
L Device:C C6
U 1 1 6116EC15
P 2800 900
F 0 "C6" V 2548 900 50  0000 C CNN
F 1 "0.1uF" V 2639 900 50  0000 C CNN
F 2 "Capacitor_SMD:C_0805_2012Metric" H 2838 750 50  0001 C CNN
F 3 "~" H 2800 900 50  0001 C CNN
	1    2800 900 
	0    1    1    0   
$EndComp
$Comp
L Device:C C7
U 1 1 6116F4C6
P 2235 5870
F 0 "C7" H 2350 5916 50  0000 L CNN
F 1 "10uF" H 2350 5825 50  0000 L CNN
F 2 "Capacitor_SMD:C_0805_2012Metric" H 2273 5720 50  0001 C CNN
F 3 "~" H 2235 5870 50  0001 C CNN
	1    2235 5870
	1    0    0    -1  
$EndComp
$Comp
L Device:C C4
U 1 1 61170186
P 2000 1500
F 0 "C4" V 1748 1500 50  0000 C CNN
F 1 "0.1uF" V 1839 1500 50  0000 C CNN
F 2 "Capacitor_SMD:C_0805_2012Metric" H 2038 1350 50  0001 C CNN
F 3 "~" H 2000 1500 50  0001 C CNN
	1    2000 1500
	0    1    1    0   
$EndComp
$Comp
L power:GNDREF #PWR05
U 1 1 611709D9
P 1700 1600
F 0 "#PWR05" H 1700 1350 50  0001 C CNN
F 1 "GNDREF" H 1705 1427 50  0000 C CNN
F 2 "" H 1700 1600 50  0001 C CNN
F 3 "" H 1700 1600 50  0001 C CNN
	1    1700 1600
	1    0    0    -1  
$EndComp
$Comp
L Device:R R1
U 1 1 6117158E
P 1540 945
F 0 "R1" H 1610 991 50  0000 L CNN
F 1 "10K" H 1610 900 50  0000 L CNN
F 2 "Resistor_SMD:R_0805_2012Metric" V 1470 945 50  0001 C CNN
F 3 "~" H 1540 945 50  0001 C CNN
	1    1540 945 
	-1   0    0    -1  
$EndComp
$Comp
L power:+3V3 #PWR09
U 1 1 61172D92
P 3075 775
F 0 "#PWR09" H 3075 625 50  0001 C CNN
F 1 "+3V3" H 3090 948 50  0000 C CNN
F 2 "" H 3075 775 50  0001 C CNN
F 3 "" H 3075 775 50  0001 C CNN
	1    3075 775 
	1    0    0    -1  
$EndComp
$Comp
L power:+3V3 #PWR04
U 1 1 6117355C
P 1540 745
F 0 "#PWR04" H 1540 595 50  0001 C CNN
F 1 "+3V3" H 1555 918 50  0000 C CNN
F 2 "" H 1540 745 50  0001 C CNN
F 3 "" H 1540 745 50  0001 C CNN
	1    1540 745 
	-1   0    0    -1  
$EndComp
$Comp
L power:+3V3 #PWR012
U 1 1 61173EB9
P 5660 750
F 0 "#PWR012" H 5660 600 50  0001 C CNN
F 1 "+3V3" H 5675 923 50  0000 C CNN
F 2 "" H 5660 750 50  0001 C CNN
F 3 "" H 5660 750 50  0001 C CNN
	1    5660 750 
	1    0    0    -1  
$EndComp
$Comp
L power:GNDREF #PWR08
U 1 1 61175BD4
P 1635 6195
F 0 "#PWR08" H 1635 5945 50  0001 C CNN
F 1 "GNDREF" H 1640 6022 50  0000 C CNN
F 2 "" H 1635 6195 50  0001 C CNN
F 3 "" H 1635 6195 50  0001 C CNN
	1    1635 6195
	1    0    0    -1  
$EndComp
$Comp
L power:+3V3 #PWR011
U 1 1 61176C15
P 2235 5545
F 0 "#PWR011" H 2235 5395 50  0001 C CNN
F 1 "+3V3" H 2250 5718 50  0000 C CNN
F 2 "" H 2235 5545 50  0001 C CNN
F 3 "" H 2235 5545 50  0001 C CNN
	1    2235 5545
	1    0    0    -1  
$EndComp
$Comp
L Device:C C2
U 1 1 611774F9
P 1115 1170
F 0 "C2" V 863 1170 50  0000 C CNN
F 1 "0.1uF" V 954 1170 50  0000 C CNN
F 2 "Capacitor_SMD:C_0805_2012Metric" H 1153 1020 50  0001 C CNN
F 3 "~" H 1115 1170 50  0001 C CNN
	1    1115 1170
	0    -1   1    0   
$EndComp
$Comp
L power:GNDREF #PWR07
U 1 1 61185AFA
P 2575 925
F 0 "#PWR07" H 2575 675 50  0001 C CNN
F 1 "GNDREF" H 2580 752 50  0000 C CNN
F 2 "" H 2575 925 50  0001 C CNN
F 3 "" H 2575 925 50  0001 C CNN
	1    2575 925 
	1    0    0    -1  
$EndComp
Wire Wire Line
	2575 925  2575 900 
Wire Wire Line
	2575 900  2650 900 
Wire Wire Line
	2950 900  3075 900 
Wire Wire Line
	3075 775  3075 900 
Connection ~ 3075 900 
Wire Wire Line
	1700 1600 1700 1500
Wire Wire Line
	1700 1500 1850 1500
Wire Wire Line
	2150 1500 2475 1500
$Comp
L power:+BATT #PWR06
U 1 1 6118AB9E
P 1035 5570
F 0 "#PWR06" H 1035 5420 50  0001 C CNN
F 1 "+BATT" H 1050 5743 50  0000 C CNN
F 2 "" H 1035 5570 50  0001 C CNN
F 3 "" H 1035 5570 50  0001 C CNN
	1    1035 5570
	1    0    0    -1  
$EndComp
Wire Wire Line
	1035 5570 1035 5720
Wire Wire Line
	1035 5720 1335 5720
Connection ~ 1035 5720
Wire Wire Line
	1935 5720 2235 5720
Wire Wire Line
	2235 5545 2235 5720
Connection ~ 2235 5720
Wire Wire Line
	1035 6020 1035 6120
Wire Wire Line
	1035 6120 1635 6120
Wire Wire Line
	2235 6120 2235 6020
Connection ~ 1635 6120
Wire Wire Line
	1635 6120 2235 6120
Wire Wire Line
	1635 6120 1635 6195
Wire Wire Line
	1635 6120 1635 6020
Text Label 4200 3000 2    50   ~ 0
RESET
Text Label 1890 1170 2    50   ~ 0
RESET
Text Label 740  1170 0    50   ~ 0
DTR
Wire Wire Line
	1890 1170 1540 1170
Wire Wire Line
	1540 1170 1540 1095
Wire Wire Line
	1540 795  1540 745 
Wire Wire Line
	740  1170 965  1170
Wire Wire Line
	1265 1170 1540 1170
Connection ~ 1540 1170
Text Label 4200 3200 2    50   ~ 0
RXD
Text Label 4200 3300 2    50   ~ 0
TXD
NoConn ~ 3675 2900
NoConn ~ 3675 2800
Text Label 4175 2000 2    50   ~ 0
SCK
Text Label 4175 1900 2    50   ~ 0
MISO
Text Label 4175 1800 2    50   ~ 0
MOSI
Text Label 4175 1700 2    50   ~ 0
CS
$Comp
L power:GNDREF #PWR010
U 1 1 611AB34C
P 3075 4200
F 0 "#PWR010" H 3075 3950 50  0001 C CNN
F 1 "GNDREF" H 3080 4027 50  0000 C CNN
F 2 "" H 3075 4200 50  0001 C CNN
F 3 "" H 3075 4200 50  0001 C CNN
	1    3075 4200
	1    0    0    -1  
$EndComp
Text Label 4860 1740 0    50   ~ 0
CS
Text Label 4860 1540 0    50   ~ 0
MOSI
Text Label 4860 1640 0    50   ~ 0
MISO
Text Label 4860 1440 0    50   ~ 0
SCK
$Comp
L power:GNDREF #PWR013
U 1 1 611B60E4
P 5660 2440
F 0 "#PWR013" H 5660 2190 50  0001 C CNN
F 1 "GNDREF" H 5665 2267 50  0000 C CNN
F 2 "" H 5660 2440 50  0001 C CNN
F 3 "" H 5660 2440 50  0001 C CNN
	1    5660 2440
	1    0    0    -1  
$EndComp
$Comp
L power:GNDREF #PWR014
U 1 1 611B6FCA
P 6420 1110
F 0 "#PWR014" H 6420 860 50  0001 C CNN
F 1 "GNDREF" H 6425 937 50  0000 C CNN
F 2 "" H 6420 1110 50  0001 C CNN
F 3 "" H 6420 1110 50  0001 C CNN
	1    6420 1110
	1    0    0    -1  
$EndComp
$Comp
L power:GNDREF #PWR017
U 1 1 611DFE1A
P 1580 4560
F 0 "#PWR017" H 1580 4310 50  0001 C CNN
F 1 "GNDREF" H 1585 4387 50  0000 C CNN
F 2 "" H 1580 4560 50  0001 C CNN
F 3 "" H 1580 4560 50  0001 C CNN
	1    1580 4560
	1    0    0    -1  
$EndComp
Text Label 1560 4215 2    50   ~ 0
DTR
Text Label 1565 4415 2    50   ~ 0
RXD
Text Label 1565 4315 2    50   ~ 0
TXD
Text Label 6460 2140 2    50   ~ 0
D2
Text Label 6460 2040 2    50   ~ 0
D7
Text Label 6460 1940 2    50   ~ 0
D8
Text Label 4860 1940 0    50   ~ 0
D9
Text Label 4175 1600 2    50   ~ 0
D9
Text Label 4200 3400 2    50   ~ 0
D2
Text Label 4200 3600 2    50   ~ 0
D4
Text Label 4200 3900 2    50   ~ 0
D7
Text Label 4175 1500 2    50   ~ 0
D8
NoConn ~ 3675 2500
NoConn ~ 2475 1700
NoConn ~ 2475 1800
Wire Wire Line
	3175 1200 3175 1000
$Comp
L Device:R R2
U 1 1 6121DCC3
P 5450 6275
F 0 "R2" H 5520 6321 50  0000 L CNN
F 1 "100K" H 5520 6230 50  0000 L CNN
F 2 "Resistor_SMD:R_0805_2012Metric" V 5380 6275 50  0001 C CNN
F 3 "~" H 5450 6275 50  0001 C CNN
	1    5450 6275
	1    0    0    -1  
$EndComp
$Comp
L power:+BATT #PWR016
U 1 1 6121E5D5
P 5900 5845
F 0 "#PWR016" H 5900 5695 50  0001 C CNN
F 1 "+BATT" H 5915 6018 50  0000 C CNN
F 2 "" H 5900 5845 50  0001 C CNN
F 3 "" H 5900 5845 50  0001 C CNN
	1    5900 5845
	1    0    0    -1  
$EndComp
$Comp
L Device:C C1
U 1 1 6121EDBB
P 5475 6975
F 0 "C1" H 5590 7021 50  0000 L CNN
F 1 "0.1uF" H 5590 6930 50  0000 L CNN
F 2 "Capacitor_SMD:C_0805_2012Metric" H 5513 6825 50  0001 C CNN
F 3 "~" H 5475 6975 50  0001 C CNN
	1    5475 6975
	1    0    0    -1  
$EndComp
$Comp
L Device:R R3
U 1 1 6121F80C
P 5900 6110
F 0 "R3" H 5970 6156 50  0000 L CNN
F 1 "100K" H 5970 6065 50  0000 L CNN
F 2 "Resistor_SMD:R_0805_2012Metric" V 5830 6110 50  0001 C CNN
F 3 "~" H 5900 6110 50  0001 C CNN
	1    5900 6110
	1    0    0    -1  
$EndComp
$Comp
L Device:R R4
U 1 1 6121FAD1
P 5900 6975
F 0 "R4" H 5970 7021 50  0000 L CNN
F 1 "180K" H 5970 6930 50  0000 L CNN
F 2 "Resistor_SMD:R_0805_2012Metric" V 5830 6975 50  0001 C CNN
F 3 "~" H 5900 6975 50  0001 C CNN
	1    5900 6975
	1    0    0    -1  
$EndComp
Wire Wire Line
	5450 6425 5450 6525
Wire Wire Line
	5450 6525 5600 6525
Text Label 4200 3700 2    50   ~ 0
D5
Text Label 4900 6525 0    50   ~ 0
D5
Wire Wire Line
	5475 6825 5900 6825
Connection ~ 5900 6825
Wire Wire Line
	5475 7125 5675 7125
$Comp
L power:GNDREF #PWR015
U 1 1 61236178
P 5675 7200
F 0 "#PWR015" H 5675 6950 50  0001 C CNN
F 1 "GNDREF" H 5680 7027 50  0000 C CNN
F 2 "" H 5675 7200 50  0001 C CNN
F 3 "" H 5675 7200 50  0001 C CNN
	1    5675 7200
	1    0    0    -1  
$EndComp
Wire Wire Line
	5675 7200 5675 7125
Connection ~ 5675 7125
Wire Wire Line
	5675 7125 5900 7125
Text Label 4900 6675 0    50   ~ 0
A0
Text Label 4175 2400 2    50   ~ 0
A0
$Comp
L Device:R R7
U 1 1 61242699
P 5200 6525
F 0 "R7" V 4993 6525 50  0000 C CNN
F 1 "1K" V 5084 6525 50  0000 C CNN
F 2 "Resistor_SMD:R_0805_2012Metric" V 5130 6525 50  0001 C CNN
F 3 "~" H 5200 6525 50  0001 C CNN
	1    5200 6525
	0    1    1    0   
$EndComp
Wire Wire Line
	5350 6525 5450 6525
Connection ~ 5450 6525
Wire Wire Line
	4900 6675 5475 6675
$Comp
L power:PWR_FLAG #FLG0101
U 1 1 61250008
P 6360 5850
F 0 "#FLG0101" H 6360 5925 50  0001 C CNN
F 1 "PWR_FLAG" H 6360 6023 50  0000 C CNN
F 2 "" H 6360 5850 50  0001 C CNN
F 3 "~" H 6360 5850 50  0001 C CNN
	1    6360 5850
	1    0    0    -1  
$EndComp
Text Label 4200 3800 2    50   ~ 0
D6
Text Label 4845 3710 2    50   ~ 0
D6
Wire Wire Line
	4845 3710 5020 3710
$Comp
L Device:R R8
U 1 1 61199B07
P 5020 3410
F 0 "R8" H 5090 3456 50  0000 L CNN
F 1 "100K" H 5090 3365 50  0000 L CNN
F 2 "Resistor_SMD:R_0805_2012Metric" V 4950 3410 50  0001 C CNN
F 3 "~" H 5020 3410 50  0001 C CNN
	1    5020 3410
	1    0    0    -1  
$EndComp
$Comp
L power:+3V3 #PWR020
U 1 1 611A6ACB
P 5020 3210
F 0 "#PWR020" H 5020 3060 50  0001 C CNN
F 1 "+3V3" H 5035 3383 50  0000 C CNN
F 2 "" H 5020 3210 50  0001 C CNN
F 3 "" H 5020 3210 50  0001 C CNN
	1    5020 3210
	1    0    0    -1  
$EndComp
Wire Wire Line
	5020 3210 5020 3260
Wire Wire Line
	5020 3560 5020 3710
Connection ~ 5020 3710
Wire Wire Line
	5020 3710 5245 3710
$Comp
L Connector_Generic:Conn_01x01 J4
U 1 1 611B25AF
P 5445 3710
F 0 "J4" H 5525 3752 50  0000 L CNN
F 1 "Conn_01x01" H 5525 3661 50  0000 L CNN
F 2 "Connector_PinHeader_2.00mm:PinHeader_1x01_P2.00mm_Vertical" H 5445 3710 50  0001 C CNN
F 3 "~" H 5445 3710 50  0001 C CNN
	1    5445 3710
	1    0    0    -1  
$EndComp
Wire Wire Line
	4900 6525 5050 6525
Text Label 4175 2700 2    50   ~ 0
A3
Text Label 4175 2600 2    50   ~ 0
A2
Text Label 4175 2100 2    50   ~ 0
XTAL1
Text Label 4175 2200 2    50   ~ 0
XTAL2
Text Label 850  2250 0    50   ~ 0
XTAL1
Text Label 1850 2250 2    50   ~ 0
XTAL2
$Comp
L power:GNDREF #PWR03
U 1 1 611AEEE5
P 1375 2625
F 0 "#PWR03" H 1375 2375 50  0001 C CNN
F 1 "GNDREF" H 1380 2452 50  0000 C CNN
F 2 "" H 1375 2625 50  0001 C CNN
F 3 "" H 1375 2625 50  0001 C CNN
	1    1375 2625
	1    0    0    -1  
$EndComp
$Comp
L Device:Crystal_GND24 Y1
U 1 1 611B1D35
P 1375 2250
F 0 "Y1" H 700 2450 50  0000 L CNN
F 1 "Crystal_GND24" H 675 2550 50  0000 L CNN
F 2 "Crystal:Crystal_SMD_5032-4Pin_5.0x3.2mm" H 1375 2250 50  0001 C CNN
F 3 "~" H 1375 2250 50  0001 C CNN
	1    1375 2250
	1    0    0    -1  
$EndComp
$Comp
L Device:C_Small C3
U 1 1 611B417C
P 925 2375
F 0 "C3" H 1017 2421 50  0000 L CNN
F 1 "22pF" H 1017 2330 50  0000 L CNN
F 2 "Capacitor_SMD:C_0805_2012Metric" H 925 2375 50  0001 C CNN
F 3 "~" H 925 2375 50  0001 C CNN
	1    925  2375
	1    0    0    -1  
$EndComp
$Comp
L Device:C_Small C9
U 1 1 611B4A7E
P 1750 2375
F 0 "C9" H 1842 2421 50  0000 L CNN
F 1 "22pF" H 1842 2330 50  0000 L CNN
F 2 "Capacitor_SMD:C_0805_2012Metric" H 1750 2375 50  0001 C CNN
F 3 "~" H 1750 2375 50  0001 C CNN
	1    1750 2375
	1    0    0    -1  
$EndComp
Wire Wire Line
	850  2250 925  2250
Wire Wire Line
	925  2275 925  2250
Connection ~ 925  2250
Wire Wire Line
	925  2250 1225 2250
Wire Wire Line
	925  2475 925  2575
Wire Wire Line
	925  2575 1375 2575
Wire Wire Line
	1375 2575 1375 2625
Wire Wire Line
	1750 2575 1750 2475
Connection ~ 1375 2575
Wire Wire Line
	1375 2575 1375 2450
Wire Wire Line
	1525 2250 1750 2250
Wire Wire Line
	1750 2275 1750 2250
Connection ~ 1750 2250
Wire Wire Line
	1750 2250 1850 2250
$Comp
L Device:CP C8
U 1 1 6116D236
P 5995 880
F 0 "C8" V 6250 880 50  0000 C CNN
F 1 "47uF" V 6159 880 50  0000 C CNN
F 2 "Capacitor_Tantalum_SMD:CP_EIA-3216-18_Kemet-A_Pad1.58x1.35mm_HandSolder" H 6033 730 50  0001 C CNN
F 3 "~" H 5995 880 50  0001 C CNN
	1    5995 880 
	0    -1   -1   0   
$EndComp
Wire Wire Line
	1375 2050 1550 2050
Wire Wire Line
	1550 2050 1550 2575
Wire Wire Line
	1375 2575 1550 2575
Wire Wire Line
	1550 2575 1750 2575
Connection ~ 1550 2575
$Comp
L Device:CP C10
U 1 1 611DF196
P 2825 5795
F 0 "C10" H 2943 5841 50  0000 L CNN
F 1 "100uF" H 2943 5750 50  0000 L CNN
F 2 "Capacitor_Tantalum_SMD:CP_EIA-3528-21_Kemet-B_Pad1.50x2.35mm_HandSolder" H 2863 5645 50  0001 C CNN
F 3 "~" H 2825 5795 50  0001 C CNN
	1    2825 5795
	1    0    0    -1  
$EndComp
$Comp
L power:+3V3 #PWR021
U 1 1 611DFB7F
P 2825 5645
F 0 "#PWR021" H 2825 5495 50  0001 C CNN
F 1 "+3V3" H 2840 5818 50  0000 C CNN
F 2 "" H 2825 5645 50  0001 C CNN
F 3 "" H 2825 5645 50  0001 C CNN
	1    2825 5645
	1    0    0    -1  
$EndComp
$Comp
L power:GNDREF #PWR022
U 1 1 611E0644
P 2825 5945
F 0 "#PWR022" H 2825 5695 50  0001 C CNN
F 1 "GNDREF" H 2830 5772 50  0000 C CNN
F 2 "" H 2825 5945 50  0001 C CNN
F 3 "" H 2825 5945 50  0001 C CNN
	1    2825 5945
	1    0    0    -1  
$EndComp
Wire Wire Line
	8990 3300 9390 3300
Wire Wire Line
	8990 3400 9390 3400
$Comp
L power:GNDREF #PWR023
U 1 1 611F5487
P 9140 3600
F 0 "#PWR023" H 9140 3350 50  0001 C CNN
F 1 "GNDREF" H 9145 3427 50  0000 C CNN
F 2 "" H 9140 3600 50  0001 C CNN
F 3 "" H 9140 3600 50  0001 C CNN
	1    9140 3600
	1    0    0    -1  
$EndComp
Wire Wire Line
	8990 3600 9140 3600
NoConn ~ 7590 3200
Text Label 8525 1275 0    50   ~ 0
D4
$Comp
L Device:R R5
U 1 1 611DD5AE
P 8925 1275
F 0 "R5" V 8718 1275 50  0000 C CNN
F 1 "1K" V 8809 1275 50  0000 C CNN
F 2 "Resistor_SMD:R_0805_2012Metric" V 8855 1275 50  0001 C CNN
F 3 "~" H 8925 1275 50  0001 C CNN
	1    8925 1275
	0    1    1    0   
$EndComp
$Comp
L Regulator_Linear:MCP1700-3302E_SOT23 U1
U 1 1 6116870C
P 1635 5720
F 0 "U1" H 1635 5962 50  0000 C CNN
F 1 "MCP1700-3302E_SOT23" H 1635 5871 50  0000 C CNN
F 2 "Package_TO_SOT_SMD:SOT-23" H 1635 5945 50  0001 C CNN
F 3 "http://ww1.microchip.com/downloads/en/DeviceDoc/20001826D.pdf" H 1635 5720 50  0001 C CNN
	1    1635 5720
	1    0    0    -1  
$EndComp
$Comp
L Device:CP C13
U 1 1 611AB794
P 8070 1280
F 0 "C13" H 8188 1326 50  0000 L CNN
F 1 "100uF" H 8188 1235 50  0000 L CNN
F 2 "Capacitor_Tantalum_SMD:CP_EIA-3528-21_Kemet-B_Pad1.50x2.35mm_HandSolder" H 8108 1130 50  0001 C CNN
F 3 "~" H 8070 1280 50  0001 C CNN
	1    8070 1280
	1    0    0    -1  
$EndComp
$Comp
L power:VCC #PWR026
U 1 1 611B05B2
P 9265 2650
F 0 "#PWR026" H 9265 2500 50  0001 C CNN
F 1 "VCC" H 9280 2823 50  0000 C CNN
F 2 "" H 9265 2650 50  0001 C CNN
F 3 "" H 9265 2650 50  0001 C CNN
	1    9265 2650
	1    0    0    -1  
$EndComp
Wire Wire Line
	8990 2700 9065 2700
Wire Wire Line
	9265 2700 9265 2650
Wire Wire Line
	8070 1430 8070 1555
$Comp
L Device:R R6
U 1 1 612358C2
P 9200 1075
F 0 "R6" H 9270 1121 50  0000 L CNN
F 1 "100K" H 9270 1030 50  0000 L CNN
F 2 "Resistor_SMD:R_0805_2012Metric" V 9130 1075 50  0001 C CNN
F 3 "~" H 9200 1075 50  0001 C CNN
	1    9200 1075
	1    0    0    -1  
$EndComp
$Comp
L power:GNDREF #PWR025
U 1 1 6123662C
P 8070 1555
F 0 "#PWR025" H 8070 1305 50  0001 C CNN
F 1 "GNDREF" H 8075 1382 50  0000 C CNN
F 2 "" H 8070 1555 50  0001 C CNN
F 3 "" H 8070 1555 50  0001 C CNN
	1    8070 1555
	1    0    0    -1  
$EndComp
$Comp
L power:+3V3 #PWR019
U 1 1 6123FF3E
P 9600 925
F 0 "#PWR019" H 9600 775 50  0001 C CNN
F 1 "+3V3" H 9615 1098 50  0000 C CNN
F 2 "" H 9600 925 50  0001 C CNN
F 3 "" H 9600 925 50  0001 C CNN
	1    9600 925 
	1    0    0    -1  
$EndComp
$Comp
L power:VCC #PWR024
U 1 1 61240D05
P 9750 1675
F 0 "#PWR024" H 9750 1525 50  0001 C CNN
F 1 "VCC" H 9765 1848 50  0000 C CNN
F 2 "" H 9750 1675 50  0001 C CNN
F 3 "" H 9750 1675 50  0001 C CNN
	1    9750 1675
	1    0    0    -1  
$EndComp
Wire Wire Line
	8525 1275 8775 1275
Wire Wire Line
	9075 1275 9200 1275
Wire Wire Line
	9200 1225 9200 1275
Connection ~ 9200 1275
Wire Wire Line
	9200 1275 9300 1275
Wire Wire Line
	9200 925  9600 925 
Wire Wire Line
	9600 925  9600 1075
Connection ~ 9600 925 
Wire Wire Line
	9600 1475 9600 1725
Wire Wire Line
	9600 1725 9750 1725
Wire Wire Line
	9750 1725 9750 1675
NoConn ~ 7590 3000
NoConn ~ 8990 3000
NoConn ~ 7590 3400
NoConn ~ 8990 3100
$Comp
L Device:C C11
U 1 1 61278676
P 9690 2950
F 0 "C11" H 9805 2996 50  0000 L CNN
F 1 "4.7uF" H 9805 2905 50  0000 L CNN
F 2 "Capacitor_SMD:C_0805_2012Metric" H 9728 2800 50  0001 C CNN
F 3 "~" H 9690 2950 50  0001 C CNN
	1    9690 2950
	1    0    0    -1  
$EndComp
Wire Wire Line
	8990 2800 9690 2800
Connection ~ 9690 2800
$Comp
L power:GNDREF #PWR028
U 1 1 6128752B
P 9690 3100
F 0 "#PWR028" H 9690 2850 50  0001 C CNN
F 1 "GNDREF" H 9695 2927 50  0000 C CNN
F 2 "" H 9690 3100 50  0001 C CNN
F 3 "" H 9690 3100 50  0001 C CNN
	1    9690 3100
	1    0    0    -1  
$EndComp
Text Label 9390 3400 2    50   ~ 0
A3
Text Label 9390 3300 2    50   ~ 0
A2
$Comp
L power:PWR_FLAG #FLG0102
U 1 1 61289629
P 9065 2400
F 0 "#FLG0102" H 9065 2475 50  0001 C CNN
F 1 "PWR_FLAG" H 9065 2573 50  0000 C CNN
F 2 "" H 9065 2400 50  0001 C CNN
F 3 "~" H 9065 2400 50  0001 C CNN
	1    9065 2400
	1    0    0    -1  
$EndComp
Wire Wire Line
	9065 2400 9065 2700
Connection ~ 9065 2700
Wire Wire Line
	9065 2700 9265 2700
$Comp
L Connector_Generic:Conn_01x02 GPS1
U 1 1 6129B1CE
P 8265 4100
F 0 "GPS1" H 8345 4092 50  0000 L CNN
F 1 "Conn_01x02" H 8345 4001 50  0000 L CNN
F 2 "Connector_PinHeader_2.00mm:PinHeader_1x02_P2.00mm_Vertical" H 8265 4100 50  0001 C CNN
F 3 "~" H 8265 4100 50  0001 C CNN
	1    8265 4100
	1    0    0    -1  
$EndComp
Text Label 7840 4100 0    50   ~ 0
A2
Text Label 7840 4200 0    50   ~ 0
A3
Wire Wire Line
	7840 4100 8065 4100
Wire Wire Line
	7840 4200 8065 4200
$Comp
L Connector_Generic:Conn_01x01 J6
U 1 1 61198D3E
P 6030 3310
F 0 "J6" H 6110 3352 50  0000 L CNN
F 1 "Conn_01x01" H 6110 3261 50  0000 L CNN
F 2 "Connector_PinHeader_2.00mm:PinHeader_1x01_P2.00mm_Vertical" H 6030 3310 50  0001 C CNN
F 3 "~" H 6030 3310 50  0001 C CNN
	1    6030 3310
	1    0    0    -1  
$EndComp
Text Label 5530 3310 0    50   ~ 0
D3
Wire Wire Line
	5530 3310 5830 3310
Text Label 4200 3500 2    50   ~ 0
D3
Wire Wire Line
	9690 2800 10115 2800
$Comp
L Device:C C12
U 1 1 611BC143
P 10115 2950
F 0 "C12" H 10230 2996 50  0000 L CNN
F 1 "1uF" H 10230 2905 50  0000 L CNN
F 2 "Capacitor_SMD:C_0805_2012Metric" H 10153 2800 50  0001 C CNN
F 3 "~" H 10115 2950 50  0001 C CNN
	1    10115 2950
	1    0    0    -1  
$EndComp
Connection ~ 10115 2800
$Comp
L power:GNDREF #PWR032
U 1 1 611BC8FE
P 10115 3100
F 0 "#PWR032" H 10115 2850 50  0001 C CNN
F 1 "GNDREF" H 10120 2927 50  0000 C CNN
F 2 "" H 10115 3100 50  0001 C CNN
F 3 "" H 10115 3100 50  0001 C CNN
	1    10115 3100
	1    0    0    -1  
$EndComp
$Comp
L L86-M33:L86-M33 U4
U 1 1 6157F8BD
P 8290 3100
F 0 "U4" H 8290 3767 50  0000 C CNN
F 1 "L86-M33" H 8290 3676 50  0000 C CNN
F 2 "kicad-footprint:XCVR_L86-M33" H 8290 3100 50  0001 L BNN
F 3 "" H 8290 3100 50  0001 L BNN
F 4 "None" H 8290 3100 50  0001 L BNN "PACKAGE"
F 5 "L86 is an ultra-compact GNSS POT _Patch on Top_ module with an embedded 18.4mm × 18.4mm × 4.0mm patch antenna and utilizes the MediaTek new generation GNSS chipset MT3333 that achieves the perfect performance" H 8290 3100 50  0001 L BNN "DESCRIPTION"
F 6 "Quectel" H 8290 3100 50  0001 L BNN "MF"
F 7 "None" H 8290 3100 50  0001 L BNN "PRICE"
F 8 "L86" H 8290 3100 50  0001 L BNN "MP"
F 9 "Unavailable" H 8290 3100 50  0001 L BNN "AVAILABILITY"
	1    8290 3100
	1    0    0    -1  
$EndComp
$Comp
L RF_Module:RFM96W-433S2 U3
U 1 1 61591853
P 5660 1740
F 0 "U3" H 5150 2340 50  0000 C CNN
F 1 "RFM96W-433S2" H 5200 2200 50  0000 C CNN
F 2 "RF_Module:HOPERF_RFM9XW_SMD" H 2360 3390 50  0001 C CNN
F 3 "https://www.hoperf.com/data/upload/portal/20181127/5bfcc0ac60235.pdf" H 2360 3390 50  0001 C CNN
	1    5660 1740
	1    0    0    -1  
$EndComp
Wire Wire Line
	5560 2340 5560 2390
Wire Wire Line
	5560 2390 5660 2390
Wire Wire Line
	5660 2390 5660 2340
Wire Wire Line
	5660 2390 5760 2390
Wire Wire Line
	5760 2390 5760 2340
Connection ~ 5660 2390
Wire Wire Line
	5660 2390 5660 2440
NoConn ~ 6160 1840
NoConn ~ 6160 1740
NoConn ~ 6160 1640
Wire Wire Line
	6160 2140 6460 2140
Wire Wire Line
	6160 2040 6460 2040
Wire Wire Line
	6160 1940 6460 1940
Wire Wire Line
	5160 1440 4860 1440
Wire Wire Line
	5160 1540 4860 1540
Wire Wire Line
	5160 1640 4860 1640
Wire Wire Line
	5160 1740 4860 1740
Wire Wire Line
	5160 1940 4860 1940
$Comp
L Connector:Conn_Coaxial J1
U 1 1 61618EA7
P 6880 1440
F 0 "J1" H 6980 1415 50  0000 L CNN
F 1 "Conn_Coaxial" H 6980 1324 50  0000 L CNN
F 2 "Connector_Coaxial:SMA_Samtec_SMA-J-P-X-ST-EM1_EdgeMount" H 6880 1440 50  0001 C CNN
F 3 " ~" H 6880 1440 50  0001 C CNN
	1    6880 1440
	1    0    0    -1  
$EndComp
Wire Wire Line
	6160 1440 6680 1440
$Comp
L power:GNDREF #PWR031
U 1 1 6161FD53
P 6880 1680
F 0 "#PWR031" H 6880 1430 50  0001 C CNN
F 1 "GNDREF" H 6885 1507 50  0000 C CNN
F 2 "" H 6880 1680 50  0001 C CNN
F 3 "" H 6880 1680 50  0001 C CNN
	1    6880 1680
	1    0    0    -1  
$EndComp
Wire Wire Line
	6880 1640 6880 1680
Text Label 6460 1440 2    50   ~ 0
ANT
$Comp
L Device:C C14
U 1 1 6162FC76
P 3550 1000
F 0 "C14" V 3298 1000 50  0000 C CNN
F 1 "0.1uF" V 3389 1000 50  0000 C CNN
F 2 "Capacitor_SMD:C_0805_2012Metric" H 3588 850 50  0001 C CNN
F 3 "~" H 3550 1000 50  0001 C CNN
	1    3550 1000
	0    1    1    0   
$EndComp
$Comp
L power:GNDREF #PWR030
U 1 1 61630289
P 3920 1000
F 0 "#PWR030" H 3920 750 50  0001 C CNN
F 1 "GNDREF" H 3925 827 50  0000 C CNN
F 2 "" H 3920 1000 50  0001 C CNN
F 3 "" H 3920 1000 50  0001 C CNN
	1    3920 1000
	1    0    0    -1  
$EndComp
Wire Wire Line
	3175 1000 3400 1000
Wire Wire Line
	3700 1000 3920 1000
Wire Wire Line
	3075 900  3075 1200
$Comp
L power:+3V3 #PWR029
U 1 1 6163E666
P 3175 940
F 0 "#PWR029" H 3175 790 50  0001 C CNN
F 1 "+3V3" H 3190 1113 50  0000 C CNN
F 2 "" H 3175 940 50  0001 C CNN
F 3 "" H 3175 940 50  0001 C CNN
	1    3175 940 
	1    0    0    -1  
$EndComp
Wire Wire Line
	3175 940  3175 1000
Connection ~ 3175 1000
$Comp
L power:+3V3 #PWR027
U 1 1 61676ABB
P 8070 1020
F 0 "#PWR027" H 8070 870 50  0001 C CNN
F 1 "+3V3" H 8085 1193 50  0000 C CNN
F 2 "" H 8070 1020 50  0001 C CNN
F 3 "" H 8070 1020 50  0001 C CNN
	1    8070 1020
	1    0    0    -1  
$EndComp
Wire Wire Line
	8070 1020 8070 1130
$Comp
L Device:C C16
U 1 1 6167EC62
P 10780 1190
F 0 "C16" H 10895 1236 50  0000 L CNN
F 1 "0.1uF" H 10895 1145 50  0000 L CNN
F 2 "Capacitor_SMD:C_0805_2012Metric" H 10818 1040 50  0001 C CNN
F 3 "~" H 10780 1190 50  0001 C CNN
	1    10780 1190
	1    0    0    -1  
$EndComp
$Comp
L Device:C C15
U 1 1 6167F5F2
P 10360 1190
F 0 "C15" H 10475 1236 50  0000 L CNN
F 1 "10uF" H 10475 1145 50  0000 L CNN
F 2 "Capacitor_SMD:C_0805_2012Metric" H 10398 1040 50  0001 C CNN
F 3 "~" H 10360 1190 50  0001 C CNN
	1    10360 1190
	1    0    0    -1  
$EndComp
Wire Wire Line
	10115 2800 10590 2800
$Comp
L power:VCC #PWR034
U 1 1 616A1A8B
P 10590 880
F 0 "#PWR034" H 10590 730 50  0001 C CNN
F 1 "VCC" H 10605 1053 50  0000 C CNN
F 2 "" H 10590 880 50  0001 C CNN
F 3 "" H 10590 880 50  0001 C CNN
	1    10590 880 
	1    0    0    -1  
$EndComp
$Comp
L power:GNDREF #PWR033
U 1 1 616A398D
P 10560 1490
F 0 "#PWR033" H 10560 1240 50  0001 C CNN
F 1 "GNDREF" H 10565 1317 50  0000 C CNN
F 2 "" H 10560 1490 50  0001 C CNN
F 3 "" H 10560 1490 50  0001 C CNN
	1    10560 1490
	1    0    0    -1  
$EndComp
Wire Wire Line
	10590 880  10590 990 
Wire Wire Line
	10590 990  10360 990 
Wire Wire Line
	10360 990  10360 1040
Wire Wire Line
	10590 990  10780 990 
Wire Wire Line
	10780 990  10780 1040
Connection ~ 10590 990 
Wire Wire Line
	10360 1340 10360 1490
Wire Wire Line
	10360 1490 10560 1490
Wire Wire Line
	10780 1490 10780 1340
Connection ~ 10560 1490
Wire Wire Line
	10560 1490 10780 1490
$Comp
L Diode:BAT54S D1
U 1 1 616ECC84
P 10380 2180
F 0 "D1" H 10380 2405 50  0000 C CNN
F 1 "BAT54S" H 10380 2314 50  0000 C CNN
F 2 "Package_TO_SOT_SMD:SOT-23" H 10455 2305 50  0001 L CNN
F 3 "https://www.diodes.com/assets/Datasheets/ds11005.pdf" H 10260 2180 50  0001 C CNN
	1    10380 2180
	1    0    0    -1  
$EndComp
Text Label 10590 2800 2    50   ~ 0
V_BCKP
$Comp
L power:+3V3 #PWR035
U 1 1 616EE451
P 9990 2150
F 0 "#PWR035" H 9990 2000 50  0001 C CNN
F 1 "+3V3" H 10005 2323 50  0000 C CNN
F 2 "" H 9990 2150 50  0001 C CNN
F 3 "" H 9990 2150 50  0001 C CNN
	1    9990 2150
	1    0    0    -1  
$EndComp
Text Label 10710 2400 2    50   ~ 0
V_BCKP
Wire Wire Line
	9990 2150 9990 2180
Wire Wire Line
	9990 2180 10080 2180
Wire Wire Line
	10380 2380 10380 2400
Wire Wire Line
	10380 2400 10710 2400
NoConn ~ 10680 2180
$Comp
L Transistor_FET:AO3401A Q2
U 1 1 6170585B
P 9500 1275
F 0 "Q2" H 9705 1229 50  0000 L CNN
F 1 "AO3401A" H 9705 1320 50  0000 L CNN
F 2 "Package_TO_SOT_SMD:SOT-23" H 9700 1200 50  0001 L CIN
F 3 "http://www.aosmd.com/pdfs/datasheet/AO3401A.pdf" H 9500 1275 50  0001 L CNN
	1    9500 1275
	1    0    0    1   
$EndComp
$Comp
L Transistor_FET:BSS84 Q1
U 1 1 6171108C
P 5800 6525
F 0 "Q1" H 6004 6479 50  0000 L CNN
F 1 "BSS84" H 6004 6570 50  0000 L CNN
F 2 "Package_TO_SOT_SMD:SOT-23" H 6000 6450 50  0001 L CIN
F 3 "http://assets.nexperia.com/documents/data-sheet/BSS84.pdf" H 5800 6525 50  0001 L CNN
	1    5800 6525
	1    0    0    1   
$EndComp
Wire Wire Line
	5900 6725 5900 6825
Wire Wire Line
	5475 6675 5475 6825
Connection ~ 5475 6825
Wire Wire Line
	5900 6325 5900 6260
Wire Wire Line
	5450 6125 5450 5915
Wire Wire Line
	5450 5915 5900 5915
Wire Wire Line
	5900 5915 5900 5860
Wire Wire Line
	5900 5915 5900 5960
Connection ~ 5900 5915
Wire Wire Line
	5900 5860 6360 5860
Wire Wire Line
	6360 5860 6360 5850
Connection ~ 5900 5860
Wire Wire Line
	5900 5860 5900 5845
Wire Wire Line
	6145 880  6420 880 
Wire Wire Line
	6420 880  6420 1110
Wire Wire Line
	5660 750  5660 880 
Wire Wire Line
	5845 880  5660 880 
Connection ~ 5660 880 
Wire Wire Line
	5660 880  5660 1010
Wire Wire Line
	1330 4215 1560 4215
Wire Wire Line
	1330 4315 1565 4315
Wire Wire Line
	1330 4415 1565 4415
Wire Wire Line
	1330 4515 1580 4515
Wire Wire Line
	1580 4515 1580 4560
Wire Wire Line
	4200 3700 3675 3700
Wire Wire Line
	3675 2200 4175 2200
Wire Wire Line
	3675 2100 4175 2100
Wire Wire Line
	3675 3400 4200 3400
Wire Wire Line
	3675 3300 4200 3300
Wire Wire Line
	3675 3200 4200 3200
Wire Wire Line
	3675 3000 4200 3000
Wire Wire Line
	3675 2700 4175 2700
Wire Wire Line
	3675 2600 4175 2600
Wire Wire Line
	4175 2400 3675 2400
Wire Wire Line
	3675 3600 4200 3600
Wire Wire Line
	4175 2000 3675 2000
Wire Wire Line
	3675 1900 4175 1900
Wire Wire Line
	3675 1800 4175 1800
Wire Wire Line
	4175 1700 3675 1700
Wire Wire Line
	3675 1600 4175 1600
Wire Wire Line
	4175 1500 3675 1500
Wire Wire Line
	3675 3900 4200 3900
Wire Wire Line
	4200 3800 3675 3800
Wire Wire Line
	3675 3500 4200 3500
$Comp
L MCU_Microchip_ATmega:ATmega328P-AU U2
U 1 1 6162DE3F
P 3075 2700
F 0 "U2" H 2650 1235 50  0000 C CNN
F 1 "ATmega328P-AU" H 2610 1150 50  0000 C CNN
F 2 "Package_QFP:TQFP-32_7x7mm_P0.8mm" H 3075 2700 50  0001 C CIN
F 3 "http://ww1.microchip.com/downloads/en/DeviceDoc/ATmega328_P%20AVR%20MCU%20with%20picoPower%20Technology%20Data%20Sheet%2040001984A.pdf" H 3075 2700 50  0001 C CNN
	1    3075 2700
	1    0    0    -1  
$EndComp
$Comp
L Connector_Generic:Conn_01x04 J2
U 1 1 616FACC9
P 1130 4415
F 0 "J2" H 1048 3990 50  0000 C CNN
F 1 "Conn_01x04" H 1048 4081 50  0000 C CNN
F 2 "Connector_PinHeader_2.00mm:PinHeader_1x04_P2.00mm_Vertical" H 1130 4415 50  0001 C CNN
F 3 "~" H 1130 4415 50  0001 C CNN
	1    1130 4415
	-1   0    0    1   
$EndComp
$Comp
L Connector_Generic:Conn_02x02_Odd_Even J3
U 1 1 616FE986
P 4150 4680
F 0 "J3" H 4200 4897 50  0000 C CNN
F 1 "Conn_02x02_Odd_Even" H 4200 4806 50  0000 C CNN
F 2 "Connector_PinHeader_2.00mm:PinHeader_2x02_P2.00mm_Vertical" H 4150 4680 50  0001 C CNN
F 3 "~" H 4150 4680 50  0001 C CNN
	1    4150 4680
	1    0    0    -1  
$EndComp
$Comp
L Connector_Generic:Conn_01x02 PWR1
U 1 1 616FF0A4
P 3830 5770
F 0 "PWR1" H 3910 5762 50  0000 L CNN
F 1 "Conn_01x02" H 3910 5671 50  0000 L CNN
F 2 "Connector_PinHeader_2.00mm:PinHeader_1x02_P2.00mm_Vertical" H 3830 5770 50  0001 C CNN
F 3 "~" H 3830 5770 50  0001 C CNN
	1    3830 5770
	1    0    0    1   
$EndComp
Text Label 3480 4680 0    50   ~ 0
MOSI
Text Label 3480 4780 0    50   ~ 0
MISO
Text Label 4865 4780 2    50   ~ 0
SCK
Text Label 4865 4680 2    50   ~ 0
RESET
$Comp
L power:+3V3 #PWR018
U 1 1 617000DA
P 3615 5550
F 0 "#PWR018" H 3615 5400 50  0001 C CNN
F 1 "+3V3" H 3630 5723 50  0000 C CNN
F 2 "" H 3615 5550 50  0001 C CNN
F 3 "" H 3615 5550 50  0001 C CNN
	1    3615 5550
	1    0    0    -1  
$EndComp
$Comp
L power:GNDREF #PWR036
U 1 1 617007BD
P 3630 5890
F 0 "#PWR036" H 3630 5640 50  0001 C CNN
F 1 "GNDREF" H 3635 5717 50  0000 C CNN
F 2 "" H 3630 5890 50  0001 C CNN
F 3 "" H 3630 5890 50  0001 C CNN
	1    3630 5890
	1    0    0    -1  
$EndComp
Wire Wire Line
	3950 4680 3480 4680
Wire Wire Line
	3950 4780 3480 4780
Wire Wire Line
	4450 4680 4865 4680
Wire Wire Line
	4450 4780 4865 4780
Wire Wire Line
	3615 5550 3615 5670
Wire Wire Line
	3615 5670 3630 5670
Wire Wire Line
	3630 5770 3630 5890
$Comp
L Jumper:Jumper_2_Open JP1
U 1 1 61B2CB38
P 5300 910
F 0 "JP1" H 5300 1145 50  0000 C CNN
F 1 "Jumper_2_Open" H 5300 1054 50  0000 C CNN
F 2 "Jumper:SolderJumper-2_P1.3mm_Open_RoundedPad1.0x1.5mm" H 5300 910 50  0001 C CNN
F 3 "~" H 5300 910 50  0001 C CNN
	1    5300 910 
	1    0    0    -1  
$EndComp
Wire Wire Line
	5660 1120 5100 1120
Wire Wire Line
	5100 1120 5100 910 
Wire Wire Line
	5660 1120 5660 1240
Wire Wire Line
	5500 910  5590 910 
Wire Wire Line
	5590 910  5590 1010
Wire Wire Line
	5590 1010 5660 1010
$Comp
L power:+BATT #PWR01
U 1 1 61175400
P 1200 7100
F 0 "#PWR01" H 1200 6950 50  0001 C CNN
F 1 "+BATT" H 1215 7273 50  0000 C CNN
F 2 "" H 1200 7100 50  0001 C CNN
F 3 "" H 1200 7100 50  0001 C CNN
	1    1200 7100
	1    0    0    -1  
$EndComp
$Comp
L power:GNDREF #PWR02
U 1 1 6118AF8C
P 1200 7350
F 0 "#PWR02" H 1200 7100 50  0001 C CNN
F 1 "GNDREF" H 1205 7177 50  0000 C CNN
F 2 "" H 1200 7350 50  0001 C CNN
F 3 "" H 1200 7350 50  0001 C CNN
	1    1200 7350
	1    0    0    -1  
$EndComp
Wire Wire Line
	950  7150 1200 7150
Wire Wire Line
	1200 7150 1200 7100
$Comp
L Connector_Generic:Conn_01x02 PWR2
U 1 1 61B547F9
P 1900 7250
F 0 "PWR2" H 1980 7242 50  0000 L CNN
F 1 "Conn_01x02" H 1980 7151 50  0000 L CNN
F 2 "Connector_PinHeader_2.00mm:PinHeader_1x02_P2.00mm_Vertical" H 1900 7250 50  0001 C CNN
F 3 "~" H 1900 7250 50  0001 C CNN
	1    1900 7250
	1    0    0    1   
$EndComp
Wire Wire Line
	1200 7150 1700 7150
Connection ~ 1200 7150
Wire Wire Line
	950  7250 1200 7250
Wire Wire Line
	1200 7250 1200 7350
Wire Wire Line
	1200 7250 1700 7250
Connection ~ 1200 7250
$Comp
L Connector_Generic:Conn_01x02 BT1
U 1 1 61E71D48
P 750 7250
F 0 "BT1" H 668 6925 50  0000 C CNN
F 1 "JST1.25" H 668 7016 50  0000 C CNN
F 2 "Connector_Molex:Molex_PicoBlade_53261-0271_1x02-1MP_P1.25mm_Horizontal" H 750 7250 50  0001 C CNN
F 3 "~" H 750 7250 50  0001 C CNN
	1    750  7250
	-1   0    0    1   
$EndComp
$EndSCHEMATC
